module khakibee/admin-api

go 1.17

require (
	github.com/go-sql-driver/mysql v1.6.0
	github.com/golang-jwt/jwt v3.2.2+incompatible
	github.com/labstack/echo/v4 v4.6.1
	github.com/labstack/gommon v0.3.0
	github.com/neko-neko/echo-logrus v1.1.0
	github.com/neko-neko/echo-logrus/v2 v2.0.1
	github.com/pkg/errors v0.9.1
	github.com/sirupsen/logrus v1.8.1
	github.com/spf13/viper v1.9.0
)

require (
	github.com/fsnotify/fsnotify v1.5.1 // indirect
	github.com/hashicorp/hcl v1.0.0 // indirect
	github.com/magiconair/properties v1.8.5 // indirect
	github.com/mattn/go-colorable v0.1.8 // indirect
	github.com/mattn/go-isatty v0.0.14 // indirect
	github.com/mitchellh/mapstructure v1.4.2 // indirect
	github.com/pelletier/go-toml v1.9.4 // indirect
	github.com/robfig/cron/v3 v3.0.1
	github.com/spf13/afero v1.6.0 // indirect
	github.com/spf13/cast v1.4.1 // indirect
	github.com/spf13/jwalterweatherman v1.1.0 // indirect
	github.com/spf13/pflag v1.0.5 // indirect
	github.com/subosito/gotenv v1.2.0 // indirect
	github.com/valyala/bytebufferpool v1.0.0 // indirect
	github.com/valyala/fasttemplate v1.2.1 // indirect
	golang.org/x/crypto v0.0.0-20210817164053-32db794688a5 // indirect
	golang.org/x/net v0.0.0-20210913180222-943fd674d43e // indirect
	golang.org/x/sys v0.0.0-20210910150752-751e447fb3d0 // indirect
	golang.org/x/text v0.3.7 // indirect
	golang.org/x/time v0.0.0-20201208040808-7e3f01d25324 // indirect
	gopkg.in/ini.v1 v1.63.2 // indirect
	gopkg.in/yaml.v2 v2.4.0 // indirect
)
